h H1_Mu_1_Qf_10 H1_Mu_2_Qf_20 
3.12500000000e-02 1.98715795079e+00 2.05389322564e+00 
1.56250000000e-02 2.46898438128e-01 2.38022705742e-01 
7.81250000000e-03 1.04546456166e-01 1.01008909399e-01 
3.90625000000e-03 3.61585470418e-02 3.50211132466e-02 
1.95312500000e-03 1.05779169661e-02 1.02644369086e-02 
9.76562500000e-04 2.77513188945e-03 2.69558424250e-03 
4.88281250000e-04 6.98372745729e-04 6.78602654419e-04 
2.44140625000e-04 1.74569307892e-04 1.69639320960e-04 
