h H1_a_09 H1_a_099 H1_a_0999 H1_a_1 
3.12500000000e-02 2.71876616966e-01 4.02059378485e-01 6.76053923235e-01 3.25050236232e+00 
1.56250000000e-02 1.53166838456e-01 1.85564871077e-01 1.98305937275e-01 1.96754128908e-01 
7.81250000000e-03 6.60139484912e-02 7.64322007204e-02 8.09385575101e-02 8.34870352549e-02 
3.90625000000e-03 2.22234502511e-02 2.62777376153e-02 2.83616151238e-02 3.07224587847e-02 
1.95312500000e-03 6.38257810781e-03 7.66679809007e-03 7.97710324772e-03 1.07967254370e-02 
9.76562500000e-04 1.66287428102e-03 2.00979152203e-03 2.04833278262e-03 4.74752292790e-03 
4.88281250000e-04 4.18932984368e-04 5.06894149309e-04 5.15647335598e-04 9.50733956812e-02 
2.44140625000e-04 1.04851957699e-04 1.26867007200e-04 1.29130664265e-04 1.77482541062e+00 
