h H1_LTS4 H1_LTS4b 
3.12500000000e-02 5.27044195443e-01 5.27044195443e-01 
1.56250000000e-02 1.85493347161e-01 1.91407710797e-01 
7.81250000000e-03 8.26686037981e-02 7.58766562707e-02 
3.90625000000e-03 3.61600965876e-02 2.58482475922e-02 
1.95312500000e-03 2.49461566573e-02 6.73401832576e-03 
9.76562500000e-04 1.22141491420e-02 1.75207668815e-03 
4.88281250000e-04 5.86578863529e-03 4.42132484808e-04 
2.44140625000e-04 2.74694382532e-03 1.10772731775e-04 
