h L2IM2 H1IM2 L2EX2 H1EX2 L2EX2b H1EX2b 
3.12500000000e-02 5.82904179260e-04 6.92172022095e-04 5.82941516658e-04 6.92715873943e-04 6.64870295489e-04 1.32446847126e-03 
1.56250000000e-02 1.45289350246e-04 1.73579082476e-04 1.45290541975e-04 1.73595825817e-04 1.64995911527e-04 3.87667783230e-04 
7.81250000000e-03 3.63459986508e-05 4.33588135029e-05 3.63460348860e-05 4.33593672127e-05 4.12226056963e-05 1.25473360066e-04 
3.90625000000e-03 9.08461676138e-06 1.08374510141e-05 9.08461787732e-06 1.08374704481e-05 1.02928432367e-05 4.27107477000e-05 
1.95312500000e-03 2.27131489328e-06 2.70932267752e-06 2.27131492995e-06 2.70932343290e-06 2.57166561435e-06 1.48889899454e-05 
9.76562500000e-04 5.67804994997e-07 6.77316973235e-07 5.67804992637e-07 6.77316996930e-07 6.42714409396e-07 5.24403005070e-06 
4.88281250000e-04 1.41885852160e-07 1.69273102822e-07 1.41885825410e-07 1.69273082683e-07 1.60589760627e-07 1.85358501132e-06 
2.44140625000e-04 3.52123005937e-08 4.21025645524e-08 3.52122666660e-08 4.21066980157e-08 3.98796183365e-08 6.55611027445e-07 
